910130 859076
511400 887590
409903 525541
814400 198644
826725 890873
967888 567937
502148 711814
891843 395102
809508 452124
31625 452752
981832 206281
349161 573917
899112 859802
347767 900772
910697 538918
457832 963740
570471 625605
576549 800845
484987 2673
374737 827827
215636 24260
222664 445828
813156 332485
395672 606605
843899 761374
797481 777644
311320 665054
459964 942917
37501 533890
123622 107557
270252 197519
298095 468279
514942 904276
872631 151870
595541 56231
351959 57266
221258 920684
531003 941038
376848 565556
442996 100032
644785 827626
850919 947050
956609 238251
539492 822885
409733 213194
638852 514263
221527 353146
575042 96130
108052 318614
674950 118130
400992 405800
351434 155525
746836 673076
833562 262885
147859 61546
751125 694354
525502 311400
95011 602001
252365 929882
930025 316593
689489 563926
2487 398410
90379 956177
701666 257034
154341 487792
82147 729098
82180 352144
758517 265813
661845 120489
415588 280316
344768 451852
946782 733265
154929 360769
760402 937361
730356 254687
122355 114710
298143 495503
285868 762978
362710 570313
833751 967782
470650 101975
134568 85241
616542 15534
561092 733700
687756 242683
692084 821488
230333 76368
387444 858377
207951 206472
577298 653603
356983 160530
538522 859948
12469 749467
198184 45399
958333 567543
489624 958467
25719 961100
524237 372722
693246 757513
131198 562226
664271 919264
406501 256126
873498 820105
772630 958960
581711 806859
394670 234763
169125 577779
346187 699154
950268 541147
536435 414071
156253 486522
430129 118846
660228 612000
146768 907945
296743 410751
796203 203032
849876 118156
597722 918803
999614 393101
305891 343566
692923 188736
795313 962701
33032 510509
559294 405936
295090 777692
410974 208616
534843 699598
401042 240635
357530 394731
694957 26466
489893 334813
138340 844200
780187 444185
53075 249638
850839 834153
302359 929322
674398 66079
338326 396076
226869 855852
377159 293321
825612 393414
869913 811304
225814 324096
751685 678367
753786 283017
816394 780499
318154 932957
607403 623803
671480 748495
831086 280856
290077 246344
77368 849854
174587 752701
391304 507438
768649 302195
367246 264397
221589 359946
44576 842161
587262 291779
355763 716261
803989 1425
869510 683388
431242 176763
275478 548165
548843 371901
959516 971095
516841 701020
829794 478100
224954 130973
245693 434772
244854 930073
798153 22817
141900 835754
973086 474072
764917 882988
901030 232486
578907 166161
861759 795928
405489 708694
319569 110649
796806 765713
572119 493714
195888 112485
836408 834922
881995 549967
803552 427644
883944 47927
275672 159667
446762 571283
688765 981843
320891 232088
891422 363909
304130 391236
768565 353749
170845 298071
47567 126434
504584 811681
514122 38074
914064 393634
751411 879388
452190 32399
7423 742173
363936 95225
215800 833074
194933 559259
654615 428488
278107 488795
517620 360425
698710 270918
688827 224030
985765 46273
763222 10986
655561 102075
861084 72133
448517 870816
988337 576684
954606 681152
244410 362618
507864 253282
626915 74910
758378 760515
880176 424441
526962 743190
285484 337522
774051 979223
403517 851142
224903 863734
269195 597769
